([('calculator.exe',
   'L:\\Programs\\laragon_full\\www\\Labs\\Codemy.com\\Kivy\\chap020\\build\\calculator\\calculator.exe',
   'EXECUTABLE'),
  ('calculator.exe.manifest',
   'L:\\Programs\\laragon_full\\www\\Labs\\Codemy.com\\Kivy\\chap020\\build\\calculator\\calculator.exe.manifest',
   'BINARY'),
  ('pythoncom38.dll',
   'l:\\programs\\laragon_full\\www\\labs\\codemy.com\\kivy\\venv\\lib\\site-packages\\pywin32_system32\\pythoncom38.dll',
   'BINARY'),
  ('pywintypes38.dll',
   'l:\\programs\\laragon_full\\www\\labs\\codemy.com\\kivy\\venv\\lib\\site-packages\\pywin32_system32\\pywintypes38.dll',
   'BINARY'),
  ('select',
   'L:\\Programs\\laragon_full\\bin\\python\\python-3.8-64\\DLLs\\select.pyd',
   'EXTENSION'),
  ('unicodedata',
   'L:\\Programs\\laragon_full\\bin\\python\\python-3.8-64\\DLLs\\unicodedata.pyd',
   'EXTENSION'),
  ('_socket',
   'L:\\Programs\\laragon_full\\bin\\python\\python-3.8-64\\DLLs\\_socket.pyd',
   'EXTENSION'),
  ('_overlapped',
   'L:\\Programs\\laragon_full\\bin\\python\\python-3.8-64\\DLLs\\_overlapped.pyd',
   'EXTENSION'),
  ('_ssl',
   'L:\\Programs\\laragon_full\\bin\\python\\python-3.8-64\\DLLs\\_ssl.pyd',
   'EXTENSION'),
  ('_asyncio',
   'L:\\Programs\\laragon_full\\bin\\python\\python-3.8-64\\DLLs\\_asyncio.pyd',
   'EXTENSION'),
  ('_queue',
   'L:\\Programs\\laragon_full\\bin\\python\\python-3.8-64\\DLLs\\_queue.pyd',
   'EXTENSION'),
  ('_ctypes',
   'L:\\Programs\\laragon_full\\bin\\python\\python-3.8-64\\DLLs\\_ctypes.pyd',
   'EXTENSION'),
  ('_multiprocessing',
   'L:\\Programs\\laragon_full\\bin\\python\\python-3.8-64\\DLLs\\_multiprocessing.pyd',
   'EXTENSION'),
  ('pyexpat',
   'L:\\Programs\\laragon_full\\bin\\python\\python-3.8-64\\DLLs\\pyexpat.pyd',
   'EXTENSION'),
  ('_decimal',
   'L:\\Programs\\laragon_full\\bin\\python\\python-3.8-64\\DLLs\\_decimal.pyd',
   'EXTENSION'),
  ('_hashlib',
   'L:\\Programs\\laragon_full\\bin\\python\\python-3.8-64\\DLLs\\_hashlib.pyd',
   'EXTENSION'),
  ('_lzma',
   'L:\\Programs\\laragon_full\\bin\\python\\python-3.8-64\\DLLs\\_lzma.pyd',
   'EXTENSION'),
  ('_bz2',
   'L:\\Programs\\laragon_full\\bin\\python\\python-3.8-64\\DLLs\\_bz2.pyd',
   'EXTENSION'),
  ('win32trace',
   'l:\\programs\\laragon_full\\www\\labs\\codemy.com\\kivy\\venv\\lib\\site-packages\\win32\\win32trace.pyd',
   'EXTENSION'),
  ('win32ui',
   'l:\\programs\\laragon_full\\www\\labs\\codemy.com\\kivy\\venv\\lib\\site-packages\\Pythonwin\\win32ui.pyd',
   'EXTENSION'),
  ('_win32sysloader',
   'l:\\programs\\laragon_full\\www\\labs\\codemy.com\\kivy\\venv\\lib\\site-packages\\win32\\_win32sysloader.pyd',
   'EXTENSION'),
  ('win32api',
   'l:\\programs\\laragon_full\\www\\labs\\codemy.com\\kivy\\venv\\lib\\site-packages\\win32\\win32api.pyd',
   'EXTENSION'),
  ('win32wnet',
   'l:\\programs\\laragon_full\\www\\labs\\codemy.com\\kivy\\venv\\lib\\site-packages\\win32\\win32wnet.pyd',
   'EXTENSION'),
  ('win32com.shell.shell',
   'l:\\programs\\laragon_full\\www\\labs\\codemy.com\\kivy\\venv\\lib\\site-packages\\win32comext\\shell\\shell.pyd',
   'EXTENSION'),
  ('kivy.core.image._img_sdl2',
   'l:\\programs\\laragon_full\\www\\labs\\codemy.com\\kivy\\venv\\lib\\site-packages\\kivy\\core\\image\\_img_sdl2.cp38-win_amd64.pyd',
   'EXTENSION'),
  ('kivy.graphics.texture',
   'l:\\programs\\laragon_full\\www\\labs\\codemy.com\\kivy\\venv\\lib\\site-packages\\kivy\\graphics\\texture.cp38-win_amd64.pyd',
   'EXTENSION'),
  ('kivy.core.text.text_layout',
   'l:\\programs\\laragon_full\\www\\labs\\codemy.com\\kivy\\venv\\lib\\site-packages\\kivy\\core\\text\\text_layout.cp38-win_amd64.pyd',
   'EXTENSION'),
  ('kivy.graphics.opengl',
   'l:\\programs\\laragon_full\\www\\labs\\codemy.com\\kivy\\venv\\lib\\site-packages\\kivy\\graphics\\opengl.cp38-win_amd64.pyd',
   'EXTENSION'),
  ('kivy.graphics.scissor_instructions',
   'l:\\programs\\laragon_full\\www\\labs\\codemy.com\\kivy\\venv\\lib\\site-packages\\kivy\\graphics\\scissor_instructions.cp38-win_amd64.pyd',
   'EXTENSION'),
  ('kivy.graphics.fbo',
   'l:\\programs\\laragon_full\\www\\labs\\codemy.com\\kivy\\venv\\lib\\site-packages\\kivy\\graphics\\fbo.cp38-win_amd64.pyd',
   'EXTENSION'),
  ('kivy.graphics.gl_instructions',
   'l:\\programs\\laragon_full\\www\\labs\\codemy.com\\kivy\\venv\\lib\\site-packages\\kivy\\graphics\\gl_instructions.cp38-win_amd64.pyd',
   'EXTENSION'),
  ('kivy.graphics.stencil_instructions',
   'l:\\programs\\laragon_full\\www\\labs\\codemy.com\\kivy\\venv\\lib\\site-packages\\kivy\\graphics\\stencil_instructions.cp38-win_amd64.pyd',
   'EXTENSION'),
  ('kivy.graphics.vertex_instructions',
   'l:\\programs\\laragon_full\\www\\labs\\codemy.com\\kivy\\venv\\lib\\site-packages\\kivy\\graphics\\vertex_instructions.cp38-win_amd64.pyd',
   'EXTENSION'),
  ('kivy.graphics.context_instructions',
   'l:\\programs\\laragon_full\\www\\labs\\codemy.com\\kivy\\venv\\lib\\site-packages\\kivy\\graphics\\context_instructions.cp38-win_amd64.pyd',
   'EXTENSION'),
  ('kivy.graphics.instructions',
   'l:\\programs\\laragon_full\\www\\labs\\codemy.com\\kivy\\venv\\lib\\site-packages\\kivy\\graphics\\instructions.cp38-win_amd64.pyd',
   'EXTENSION'),
  ('kivy.graphics.context',
   'l:\\programs\\laragon_full\\www\\labs\\codemy.com\\kivy\\venv\\lib\\site-packages\\kivy\\graphics\\context.cp38-win_amd64.pyd',
   'EXTENSION'),
  ('kivy.graphics.opengl_utils',
   'l:\\programs\\laragon_full\\www\\labs\\codemy.com\\kivy\\venv\\lib\\site-packages\\kivy\\graphics\\opengl_utils.cp38-win_amd64.pyd',
   'EXTENSION'),
  ('kivy.weakproxy',
   'l:\\programs\\laragon_full\\www\\labs\\codemy.com\\kivy\\venv\\lib\\site-packages\\kivy\\weakproxy.cp38-win_amd64.pyd',
   'EXTENSION'),
  ('kivy.graphics.cgl',
   'l:\\programs\\laragon_full\\www\\labs\\codemy.com\\kivy\\venv\\lib\\site-packages\\kivy\\graphics\\cgl.cp38-win_amd64.pyd',
   'EXTENSION'),
  ('kivy.graphics.transformation',
   'l:\\programs\\laragon_full\\www\\labs\\codemy.com\\kivy\\venv\\lib\\site-packages\\kivy\\graphics\\transformation.cp38-win_amd64.pyd',
   'EXTENSION'),
  ('kivy._event',
   'l:\\programs\\laragon_full\\www\\labs\\codemy.com\\kivy\\venv\\lib\\site-packages\\kivy\\_event.cp38-win_amd64.pyd',
   'EXTENSION'),
  ('kivy._clock',
   'l:\\programs\\laragon_full\\www\\labs\\codemy.com\\kivy\\venv\\lib\\site-packages\\kivy\\_clock.cp38-win_amd64.pyd',
   'EXTENSION'),
  ('kivy.properties',
   'l:\\programs\\laragon_full\\www\\labs\\codemy.com\\kivy\\venv\\lib\\site-packages\\kivy\\properties.cp38-win_amd64.pyd',
   'EXTENSION'),
  ('win32file',
   'l:\\programs\\laragon_full\\www\\labs\\codemy.com\\kivy\\venv\\lib\\site-packages\\win32\\win32file.pyd',
   'EXTENSION'),
  ('win32gui',
   'l:\\programs\\laragon_full\\www\\labs\\codemy.com\\kivy\\venv\\lib\\site-packages\\win32\\win32gui.pyd',
   'EXTENSION'),
  ('kivy.core.window.window_info',
   'l:\\programs\\laragon_full\\www\\labs\\codemy.com\\kivy\\venv\\lib\\site-packages\\kivy\\core\\window\\window_info.cp38-win_amd64.pyd',
   'EXTENSION'),
  ('kivy.graphics.cgl_backend.cgl_mock',
   'l:\\programs\\laragon_full\\www\\labs\\codemy.com\\kivy\\venv\\lib\\site-packages\\kivy\\graphics\\cgl_backend\\cgl_mock.cp38-win_amd64.pyd',
   'EXTENSION'),
  ('kivy.graphics.buffer',
   'l:\\programs\\laragon_full\\www\\labs\\codemy.com\\kivy\\venv\\lib\\site-packages\\kivy\\graphics\\buffer.cp38-win_amd64.pyd',
   'EXTENSION'),
  ('kivy.graphics.vbo',
   'l:\\programs\\laragon_full\\www\\labs\\codemy.com\\kivy\\venv\\lib\\site-packages\\kivy\\graphics\\vbo.cp38-win_amd64.pyd',
   'EXTENSION'),
  ('kivy.graphics.tesselator',
   'l:\\programs\\laragon_full\\www\\labs\\codemy.com\\kivy\\venv\\lib\\site-packages\\kivy\\graphics\\tesselator.cp38-win_amd64.pyd',
   'EXTENSION'),
  ('kivy.graphics.vertex',
   'l:\\programs\\laragon_full\\www\\labs\\codemy.com\\kivy\\venv\\lib\\site-packages\\kivy\\graphics\\vertex.cp38-win_amd64.pyd',
   'EXTENSION'),
  ('kivy.graphics.shader',
   'l:\\programs\\laragon_full\\www\\labs\\codemy.com\\kivy\\venv\\lib\\site-packages\\kivy\\graphics\\shader.cp38-win_amd64.pyd',
   'EXTENSION'),
  ('_elementtree',
   'L:\\Programs\\laragon_full\\bin\\python\\python-3.8-64\\DLLs\\_elementtree.pyd',
   'EXTENSION'),
  ('kivy.lib.gstplayer._gstplayer',
   'l:\\programs\\laragon_full\\www\\labs\\codemy.com\\kivy\\venv\\lib\\site-packages\\kivy\\lib\\gstplayer\\_gstplayer.cp38-win_amd64.pyd',
   'EXTENSION'),
  ('kivy.core.clipboard._clipboard_sdl2',
   'l:\\programs\\laragon_full\\www\\labs\\codemy.com\\kivy\\venv\\lib\\site-packages\\kivy\\core\\clipboard\\_clipboard_sdl2.cp38-win_amd64.pyd',
   'EXTENSION'),
  ('kivy.core.text._text_sdl2',
   'l:\\programs\\laragon_full\\www\\labs\\codemy.com\\kivy\\venv\\lib\\site-packages\\kivy\\core\\text\\_text_sdl2.cp38-win_amd64.pyd',
   'EXTENSION'),
  ('kivy.core.audio.audio_sdl2',
   'l:\\programs\\laragon_full\\www\\labs\\codemy.com\\kivy\\venv\\lib\\site-packages\\kivy\\core\\audio\\audio_sdl2.cp38-win_amd64.pyd',
   'EXTENSION'),
  ('kivy.graphics.svg',
   'l:\\programs\\laragon_full\\www\\labs\\codemy.com\\kivy\\venv\\lib\\site-packages\\kivy\\graphics\\svg.cp38-win_amd64.pyd',
   'EXTENSION'),
  ('kivy.core.window._window_sdl2',
   'l:\\programs\\laragon_full\\www\\labs\\codemy.com\\kivy\\venv\\lib\\site-packages\\kivy\\core\\window\\_window_sdl2.cp38-win_amd64.pyd',
   'EXTENSION'),
  ('kivy.graphics.compiler',
   'l:\\programs\\laragon_full\\www\\labs\\codemy.com\\kivy\\venv\\lib\\site-packages\\kivy\\graphics\\compiler.cp38-win_amd64.pyd',
   'EXTENSION'),
  ('kivy.graphics.cgl_backend.cgl_gl',
   'l:\\programs\\laragon_full\\www\\labs\\codemy.com\\kivy\\venv\\lib\\site-packages\\kivy\\graphics\\cgl_backend\\cgl_gl.cp38-win_amd64.pyd',
   'EXTENSION'),
  ('kivy.graphics.cgl_backend.cgl_glew',
   'l:\\programs\\laragon_full\\www\\labs\\codemy.com\\kivy\\venv\\lib\\site-packages\\kivy\\graphics\\cgl_backend\\cgl_glew.cp38-win_amd64.pyd',
   'EXTENSION'),
  ('kivy.graphics.cgl_backend.cgl_sdl2',
   'l:\\programs\\laragon_full\\www\\labs\\codemy.com\\kivy\\venv\\lib\\site-packages\\kivy\\graphics\\cgl_backend\\cgl_sdl2.cp38-win_amd64.pyd',
   'EXTENSION'),
  ('kivy.graphics.cgl_backend.cgl_debug',
   'l:\\programs\\laragon_full\\www\\labs\\codemy.com\\kivy\\venv\\lib\\site-packages\\kivy\\graphics\\cgl_backend\\cgl_debug.cp38-win_amd64.pyd',
   'EXTENSION'),
  ('python38.dll',
   'L:\\Programs\\laragon_full\\bin\\python\\python-3.8-64\\python38.dll',
   'BINARY'),
  ('api-ms-win-crt-stdio-l1-1-0.dll',
   'L:\\Programs\\laragon_full\\bin\\java\\jdk-15.0.1+9\\bin\\api-ms-win-crt-stdio-l1-1-0.dll',
   'BINARY'),
  ('VCRUNTIME140.dll',
   'L:\\Programs\\laragon_full\\bin\\python\\python-3.8-64\\VCRUNTIME140.dll',
   'BINARY'),
  ('api-ms-win-crt-runtime-l1-1-0.dll',
   'L:\\Programs\\laragon_full\\bin\\java\\jdk-15.0.1+9\\bin\\api-ms-win-crt-runtime-l1-1-0.dll',
   'BINARY'),
  ('api-ms-win-crt-utility-l1-1-0.dll',
   'L:\\Programs\\laragon_full\\bin\\java\\jdk-15.0.1+9\\bin\\api-ms-win-crt-utility-l1-1-0.dll',
   'BINARY'),
  ('api-ms-win-crt-heap-l1-1-0.dll',
   'L:\\Programs\\laragon_full\\bin\\java\\jdk-15.0.1+9\\bin\\api-ms-win-crt-heap-l1-1-0.dll',
   'BINARY'),
  ('api-ms-win-crt-string-l1-1-0.dll',
   'L:\\Programs\\laragon_full\\bin\\java\\jdk-15.0.1+9\\bin\\api-ms-win-crt-string-l1-1-0.dll',
   'BINARY'),
  ('api-ms-win-crt-time-l1-1-0.dll',
   'L:\\Programs\\laragon_full\\bin\\java\\jdk-15.0.1+9\\bin\\api-ms-win-crt-time-l1-1-0.dll',
   'BINARY'),
  ('api-ms-win-crt-math-l1-1-0.dll',
   'L:\\Programs\\laragon_full\\bin\\java\\jdk-15.0.1+9\\bin\\api-ms-win-crt-math-l1-1-0.dll',
   'BINARY'),
  ('libssl-1_1.dll',
   'L:\\Programs\\laragon_full\\bin\\python\\python-3.8-64\\DLLs\\libssl-1_1.dll',
   'BINARY'),
  ('libcrypto-1_1.dll',
   'L:\\Programs\\laragon_full\\bin\\python\\python-3.8-64\\DLLs\\libcrypto-1_1.dll',
   'BINARY'),
  ('libffi-7.dll',
   'L:\\Programs\\laragon_full\\bin\\python\\python-3.8-64\\DLLs\\libffi-7.dll',
   'BINARY'),
  ('api-ms-win-crt-environment-l1-1-0.dll',
   'L:\\Programs\\laragon_full\\bin\\java\\jdk-15.0.1+9\\bin\\api-ms-win-crt-environment-l1-1-0.dll',
   'BINARY'),
  ('api-ms-win-crt-convert-l1-1-0.dll',
   'L:\\Programs\\laragon_full\\bin\\java\\jdk-15.0.1+9\\bin\\api-ms-win-crt-convert-l1-1-0.dll',
   'BINARY'),
  ('api-ms-win-crt-locale-l1-1-0.dll',
   'L:\\Programs\\laragon_full\\bin\\java\\jdk-15.0.1+9\\bin\\api-ms-win-crt-locale-l1-1-0.dll',
   'BINARY'),
  ('mfc140u.dll',
   'l:\\programs\\laragon_full\\www\\labs\\codemy.com\\kivy\\venv\\lib\\site-packages\\Pythonwin\\mfc140u.dll',
   'BINARY'),
  ('SDL2_image.dll',
   'l:\\programs\\laragon_full\\www\\labs\\codemy.com\\kivy\\venv\\share\\sdl2\\bin\\SDL2_image.dll',
   'BINARY'),
  ('SDL2.dll',
   'l:\\programs\\laragon_full\\www\\labs\\codemy.com\\kivy\\venv\\share\\sdl2\\bin\\SDL2.dll',
   'BINARY'),
  ('glib-2.0-0.dll',
   'l:\\programs\\laragon_full\\www\\labs\\codemy.com\\kivy\\venv\\share\\gstreamer\\bin\\glib-2.0-0.dll',
   'BINARY'),
  ('gstreamer-1.0-0.dll',
   'l:\\programs\\laragon_full\\www\\labs\\codemy.com\\kivy\\venv\\share\\gstreamer\\bin\\gstreamer-1.0-0.dll',
   'BINARY'),
  ('gobject-2.0-0.dll',
   'l:\\programs\\laragon_full\\www\\labs\\codemy.com\\kivy\\venv\\share\\gstreamer\\bin\\gobject-2.0-0.dll',
   'BINARY'),
  ('SDL2_ttf.dll',
   'l:\\programs\\laragon_full\\www\\labs\\codemy.com\\kivy\\venv\\share\\sdl2\\bin\\SDL2_ttf.dll',
   'BINARY'),
  ('SDL2_mixer.dll',
   'l:\\programs\\laragon_full\\www\\labs\\codemy.com\\kivy\\venv\\share\\sdl2\\bin\\SDL2_mixer.dll',
   'BINARY'),
  ('glew32.dll',
   'l:\\programs\\laragon_full\\www\\labs\\codemy.com\\kivy\\venv\\share\\glew\\bin\\glew32.dll',
   'BINARY'),
  ('api-ms-win-crt-conio-l1-1-0.dll',
   'L:\\Programs\\laragon_full\\bin\\java\\jdk-15.0.1+9\\bin\\api-ms-win-crt-conio-l1-1-0.dll',
   'BINARY'),
  ('api-ms-win-crt-process-l1-1-0.dll',
   'L:\\Programs\\laragon_full\\bin\\java\\jdk-15.0.1+9\\bin\\api-ms-win-crt-process-l1-1-0.dll',
   'BINARY'),
  ('api-ms-win-crt-filesystem-l1-1-0.dll',
   'L:\\Programs\\laragon_full\\bin\\java\\jdk-15.0.1+9\\bin\\api-ms-win-crt-filesystem-l1-1-0.dll',
   'BINARY'),
  ('ucrtbase.dll',
   'L:\\Programs\\laragon_full\\bin\\java\\jdk-15.0.1+9\\bin\\ucrtbase.dll',
   'BINARY'),
  ('api-ms-win-crt-multibyte-l1-1-0.dll',
   'L:\\Programs\\laragon_full\\bin\\java\\jdk-15.0.1+9\\bin\\api-ms-win-crt-multibyte-l1-1-0.dll',
   'BINARY'),
  ('intl-8.dll',
   'l:\\programs\\laragon_full\\www\\labs\\codemy.com\\kivy\\venv\\share\\gstreamer\\bin\\intl-8.dll',
   'BINARY'),
  ('gmodule-2.0-0.dll',
   'l:\\programs\\laragon_full\\www\\labs\\codemy.com\\kivy\\venv\\share\\gstreamer\\bin\\gmodule-2.0-0.dll',
   'BINARY'),
  ('ffi-7.dll',
   'l:\\programs\\laragon_full\\www\\labs\\codemy.com\\kivy\\venv\\share\\gstreamer\\bin\\ffi-7.dll',
   'BINARY'),
  ('libfreetype-6.dll',
   'l:\\programs\\laragon_full\\www\\labs\\codemy.com\\kivy\\venv\\share\\sdl2\\bin\\libfreetype-6.dll',
   'BINARY'),
  ('api-ms-win-core-processthreads-l1-1-1.dll',
   'L:\\Programs\\laragon_full\\bin\\java\\jdk-15.0.1+9\\bin\\api-ms-win-core-processthreads-l1-1-1.dll',
   'BINARY'),
  ('api-ms-win-core-file-l2-1-0.dll',
   'L:\\Programs\\laragon_full\\bin\\java\\jdk-15.0.1+9\\bin\\api-ms-win-core-file-l2-1-0.dll',
   'BINARY'),
  ('api-ms-win-core-localization-l1-2-0.dll',
   'L:\\Programs\\laragon_full\\bin\\java\\jdk-15.0.1+9\\bin\\api-ms-win-core-localization-l1-2-0.dll',
   'BINARY'),
  ('api-ms-win-core-file-l1-2-0.dll',
   'L:\\Programs\\laragon_full\\bin\\java\\jdk-15.0.1+9\\bin\\api-ms-win-core-file-l1-2-0.dll',
   'BINARY'),
  ('api-ms-win-core-rtlsupport-l1-1-0.dll',
   'L:\\Programs\\laragon_full\\bin\\java\\jdk-15.0.1+9\\bin\\api-ms-win-core-rtlsupport-l1-1-0.dll',
   'BINARY'),
  ('api-ms-win-core-string-l1-1-0.dll',
   'L:\\Programs\\laragon_full\\bin\\java\\jdk-15.0.1+9\\bin\\api-ms-win-core-string-l1-1-0.dll',
   'BINARY'),
  ('api-ms-win-core-profile-l1-1-0.dll',
   'L:\\Programs\\laragon_full\\bin\\java\\jdk-15.0.1+9\\bin\\api-ms-win-core-profile-l1-1-0.dll',
   'BINARY'),
  ('api-ms-win-core-synch-l1-1-0.dll',
   'L:\\Programs\\laragon_full\\bin\\java\\jdk-15.0.1+9\\bin\\api-ms-win-core-synch-l1-1-0.dll',
   'BINARY'),
  ('api-ms-win-core-errorhandling-l1-1-0.dll',
   'L:\\Programs\\laragon_full\\bin\\java\\jdk-15.0.1+9\\bin\\api-ms-win-core-errorhandling-l1-1-0.dll',
   'BINARY'),
  ('api-ms-win-core-console-l1-1-0.dll',
   'L:\\Programs\\laragon_full\\bin\\java\\jdk-15.0.1+9\\bin\\api-ms-win-core-console-l1-1-0.dll',
   'BINARY'),
  ('api-ms-win-core-timezone-l1-1-0.dll',
   'L:\\Programs\\laragon_full\\bin\\java\\jdk-15.0.1+9\\bin\\api-ms-win-core-timezone-l1-1-0.dll',
   'BINARY'),
  ('api-ms-win-core-interlocked-l1-1-0.dll',
   'L:\\Programs\\laragon_full\\bin\\java\\jdk-15.0.1+9\\bin\\api-ms-win-core-interlocked-l1-1-0.dll',
   'BINARY'),
  ('api-ms-win-core-datetime-l1-1-0.dll',
   'L:\\Programs\\laragon_full\\bin\\java\\jdk-15.0.1+9\\bin\\api-ms-win-core-datetime-l1-1-0.dll',
   'BINARY'),
  ('api-ms-win-core-processthreads-l1-1-0.dll',
   'L:\\Programs\\laragon_full\\bin\\java\\jdk-15.0.1+9\\bin\\api-ms-win-core-processthreads-l1-1-0.dll',
   'BINARY'),
  ('api-ms-win-core-processenvironment-l1-1-0.dll',
   'L:\\Programs\\laragon_full\\bin\\java\\jdk-15.0.1+9\\bin\\api-ms-win-core-processenvironment-l1-1-0.dll',
   'BINARY'),
  ('api-ms-win-core-libraryloader-l1-1-0.dll',
   'L:\\Programs\\laragon_full\\bin\\java\\jdk-15.0.1+9\\bin\\api-ms-win-core-libraryloader-l1-1-0.dll',
   'BINARY'),
  ('api-ms-win-core-namedpipe-l1-1-0.dll',
   'L:\\Programs\\laragon_full\\bin\\java\\jdk-15.0.1+9\\bin\\api-ms-win-core-namedpipe-l1-1-0.dll',
   'BINARY'),
  ('api-ms-win-core-handle-l1-1-0.dll',
   'L:\\Programs\\laragon_full\\bin\\java\\jdk-15.0.1+9\\bin\\api-ms-win-core-handle-l1-1-0.dll',
   'BINARY'),
  ('api-ms-win-core-util-l1-1-0.dll',
   'L:\\Programs\\laragon_full\\bin\\java\\jdk-15.0.1+9\\bin\\api-ms-win-core-util-l1-1-0.dll',
   'BINARY'),
  ('api-ms-win-core-debug-l1-1-0.dll',
   'L:\\Programs\\laragon_full\\bin\\java\\jdk-15.0.1+9\\bin\\api-ms-win-core-debug-l1-1-0.dll',
   'BINARY'),
  ('api-ms-win-core-memory-l1-1-0.dll',
   'L:\\Programs\\laragon_full\\bin\\java\\jdk-15.0.1+9\\bin\\api-ms-win-core-memory-l1-1-0.dll',
   'BINARY'),
  ('api-ms-win-core-sysinfo-l1-1-0.dll',
   'L:\\Programs\\laragon_full\\bin\\java\\jdk-15.0.1+9\\bin\\api-ms-win-core-sysinfo-l1-1-0.dll',
   'BINARY'),
  ('api-ms-win-core-heap-l1-1-0.dll',
   'L:\\Programs\\laragon_full\\bin\\java\\jdk-15.0.1+9\\bin\\api-ms-win-core-heap-l1-1-0.dll',
   'BINARY'),
  ('api-ms-win-core-synch-l1-2-0.dll',
   'L:\\Programs\\laragon_full\\bin\\java\\jdk-15.0.1+9\\bin\\api-ms-win-core-synch-l1-2-0.dll',
   'BINARY'),
  ('api-ms-win-core-file-l1-1-0.dll',
   'L:\\Programs\\laragon_full\\bin\\java\\jdk-15.0.1+9\\bin\\api-ms-win-core-file-l1-1-0.dll',
   'BINARY'),
  ('zlib1.dll',
   'l:\\programs\\laragon_full\\www\\labs\\codemy.com\\kivy\\venv\\share\\sdl2\\bin\\zlib1.dll',
   'BINARY'),
  ('base_library.zip',
   'L:\\Programs\\laragon_full\\www\\Labs\\Codemy.com\\Kivy\\chap020\\build\\calculator\\base_library.zip',
   'DATA'),
  ('docutils\\writers\\html5_polyglot\\minimal.css',
   'l:\\programs\\laragon_full\\www\\labs\\codemy.com\\kivy\\venv\\lib\\site-packages\\docutils\\writers\\html5_polyglot\\minimal.css',
   'DATA'),
  ('docutils\\parsers\\rst\\include\\mmlextra.txt',
   'l:\\programs\\laragon_full\\www\\labs\\codemy.com\\kivy\\venv\\lib\\site-packages\\docutils\\parsers\\rst\\include\\mmlextra.txt',
   'DATA'),
  ('kivy_install\\data\\fonts\\Roboto-Italic.ttf',
   'l:\\programs\\laragon_full\\www\\labs\\codemy.com\\kivy\\venv\\lib\\site-packages\\kivy\\data\\fonts\\Roboto-Italic.ttf',
   'DATA'),
  ('docutils\\parsers\\rst\\include\\isocyr1.txt',
   'l:\\programs\\laragon_full\\www\\labs\\codemy.com\\kivy\\venv\\lib\\site-packages\\docutils\\parsers\\rst\\include\\isocyr1.txt',
   'DATA'),
  ('kivy_install\\data\\logo\\kivy-icon-32.png',
   'l:\\programs\\laragon_full\\www\\labs\\codemy.com\\kivy\\venv\\lib\\site-packages\\kivy\\data\\logo\\kivy-icon-32.png',
   'DATA'),
  ('docutils\\parsers\\rst\\include\\xhtml1-symbol.txt',
   'l:\\programs\\laragon_full\\www\\labs\\codemy.com\\kivy\\venv\\lib\\site-packages\\docutils\\parsers\\rst\\include\\xhtml1-symbol.txt',
   'DATA'),
  ('docutils\\parsers\\rst\\include\\isogrk3.txt',
   'l:\\programs\\laragon_full\\www\\labs\\codemy.com\\kivy\\venv\\lib\\site-packages\\docutils\\parsers\\rst\\include\\isogrk3.txt',
   'DATA'),
  ('docutils\\writers\\s5_html\\themes\\small-white\\framing.css',
   'l:\\programs\\laragon_full\\www\\labs\\codemy.com\\kivy\\venv\\lib\\site-packages\\docutils\\writers\\s5_html\\themes\\small-white\\framing.css',
   'DATA'),
  ('docutils\\parsers\\rst\\include\\mmlextra-wide.txt',
   'l:\\programs\\laragon_full\\www\\labs\\codemy.com\\kivy\\venv\\lib\\site-packages\\docutils\\parsers\\rst\\include\\mmlextra-wide.txt',
   'DATA'),
  ('docutils\\writers\\html5_polyglot\\plain.css',
   'l:\\programs\\laragon_full\\www\\labs\\codemy.com\\kivy\\venv\\lib\\site-packages\\docutils\\writers\\html5_polyglot\\plain.css',
   'DATA'),
  ('docutils\\parsers\\rst\\include\\isoamsn.txt',
   'l:\\programs\\laragon_full\\www\\labs\\codemy.com\\kivy\\venv\\lib\\site-packages\\docutils\\parsers\\rst\\include\\isoamsn.txt',
   'DATA'),
  ('kivy_install\\data\\keyboards\\en_US.json',
   'l:\\programs\\laragon_full\\www\\labs\\codemy.com\\kivy\\venv\\lib\\site-packages\\kivy\\data\\keyboards\\en_US.json',
   'DATA'),
  ('kivy_install\\data\\keyboards\\azerty.json',
   'l:\\programs\\laragon_full\\www\\labs\\codemy.com\\kivy\\venv\\lib\\site-packages\\kivy\\data\\keyboards\\azerty.json',
   'DATA'),
  ('docutils\\parsers\\rst\\include\\isopub.txt',
   'l:\\programs\\laragon_full\\www\\labs\\codemy.com\\kivy\\venv\\lib\\site-packages\\docutils\\parsers\\rst\\include\\isopub.txt',
   'DATA'),
  ('docutils\\writers\\pep_html\\pep.css',
   'l:\\programs\\laragon_full\\www\\labs\\codemy.com\\kivy\\venv\\lib\\site-packages\\docutils\\writers\\pep_html\\pep.css',
   'DATA'),
  ('kivy_install\\data\\fonts\\Roboto-Regular.ttf',
   'l:\\programs\\laragon_full\\www\\labs\\codemy.com\\kivy\\venv\\lib\\site-packages\\kivy\\data\\fonts\\Roboto-Regular.ttf',
   'DATA'),
  ('docutils\\parsers\\rst\\include\\isonum.txt',
   'l:\\programs\\laragon_full\\www\\labs\\codemy.com\\kivy\\venv\\lib\\site-packages\\docutils\\parsers\\rst\\include\\isonum.txt',
   'DATA'),
  ('kivy_install\\modules\\__pycache__\\console.cpython-38.pyc',
   'l:\\programs\\laragon_full\\www\\labs\\codemy.com\\kivy\\venv\\lib\\site-packages\\kivy\\modules\\__pycache__\\console.cpython-38.pyc',
   'DATA'),
  ('docutils\\writers\\latex2e\\titlepage.tex',
   'l:\\programs\\laragon_full\\www\\labs\\codemy.com\\kivy\\venv\\lib\\site-packages\\docutils\\writers\\latex2e\\titlepage.tex',
   'DATA'),
  ('docutils\\writers\\s5_html\\themes\\medium-white\\framing.css',
   'l:\\programs\\laragon_full\\www\\labs\\codemy.com\\kivy\\venv\\lib\\site-packages\\docutils\\writers\\s5_html\\themes\\medium-white\\framing.css',
   'DATA'),
  ('docutils\\parsers\\rst\\include\\isogrk4.txt',
   'l:\\programs\\laragon_full\\www\\labs\\codemy.com\\kivy\\venv\\lib\\site-packages\\docutils\\parsers\\rst\\include\\isogrk4.txt',
   'DATA'),
  ('docutils\\parsers\\rst\\include\\mmlalias.txt',
   'l:\\programs\\laragon_full\\www\\labs\\codemy.com\\kivy\\venv\\lib\\site-packages\\docutils\\parsers\\rst\\include\\mmlalias.txt',
   'DATA'),
  ('kivy_install\\modules\\recorder.py',
   'l:\\programs\\laragon_full\\www\\labs\\codemy.com\\kivy\\venv\\lib\\site-packages\\kivy\\modules\\recorder.py',
   'DATA'),
  ('docutils\\writers\\html5_polyglot\\math.css',
   'l:\\programs\\laragon_full\\www\\labs\\codemy.com\\kivy\\venv\\lib\\site-packages\\docutils\\writers\\html5_polyglot\\math.css',
   'DATA'),
  ('kivy_install\\data\\style.kv',
   'l:\\programs\\laragon_full\\www\\labs\\codemy.com\\kivy\\venv\\lib\\site-packages\\kivy\\data\\style.kv',
   'DATA'),
  ('kivy_install\\modules\\joycursor.py',
   'l:\\programs\\laragon_full\\www\\labs\\codemy.com\\kivy\\venv\\lib\\site-packages\\kivy\\modules\\joycursor.py',
   'DATA'),
  ('docutils\\writers\\s5_html\\themes\\big-white\\pretty.css',
   'l:\\programs\\laragon_full\\www\\labs\\codemy.com\\kivy\\venv\\lib\\site-packages\\docutils\\writers\\s5_html\\themes\\big-white\\pretty.css',
   'DATA'),
  ('kivy_install\\modules\\__init__.py',
   'l:\\programs\\laragon_full\\www\\labs\\codemy.com\\kivy\\venv\\lib\\site-packages\\kivy\\modules\\__init__.py',
   'DATA'),
  ('kivy_install\\modules\\__pycache__\\touchring.cpython-38.pyc',
   'l:\\programs\\laragon_full\\www\\labs\\codemy.com\\kivy\\venv\\lib\\site-packages\\kivy\\modules\\__pycache__\\touchring.cpython-38.pyc',
   'DATA'),
  ('docutils\\parsers\\rst\\include\\README.txt',
   'l:\\programs\\laragon_full\\www\\labs\\codemy.com\\kivy\\venv\\lib\\site-packages\\docutils\\parsers\\rst\\include\\README.txt',
   'DATA'),
  ('kivy_install\\data\\glsl\\header.fs',
   'l:\\programs\\laragon_full\\www\\labs\\codemy.com\\kivy\\venv\\lib\\site-packages\\kivy\\data\\glsl\\header.fs',
   'DATA'),
  ('docutils\\parsers\\rst\\include\\isoamsr.txt',
   'l:\\programs\\laragon_full\\www\\labs\\codemy.com\\kivy\\venv\\lib\\site-packages\\docutils\\parsers\\rst\\include\\isoamsr.txt',
   'DATA'),
  ('kivy_install\\modules\\keybinding.py',
   'l:\\programs\\laragon_full\\www\\labs\\codemy.com\\kivy\\venv\\lib\\site-packages\\kivy\\modules\\keybinding.py',
   'DATA'),
  ('kivy_install\\data\\fonts\\RobotoMono-Regular.ttf',
   'l:\\programs\\laragon_full\\www\\labs\\codemy.com\\kivy\\venv\\lib\\site-packages\\kivy\\data\\fonts\\RobotoMono-Regular.ttf',
   'DATA'),
  ('kivy_install\\data\\logo\\kivy-icon-24.png',
   'l:\\programs\\laragon_full\\www\\labs\\codemy.com\\kivy\\venv\\lib\\site-packages\\kivy\\data\\logo\\kivy-icon-24.png',
   'DATA'),
  ('docutils\\parsers\\rst\\include\\isodia.txt',
   'l:\\programs\\laragon_full\\www\\labs\\codemy.com\\kivy\\venv\\lib\\site-packages\\docutils\\parsers\\rst\\include\\isodia.txt',
   'DATA'),
  ('docutils\\writers\\s5_html\\themes\\default\\opera.css',
   'l:\\programs\\laragon_full\\www\\labs\\codemy.com\\kivy\\venv\\lib\\site-packages\\docutils\\writers\\s5_html\\themes\\default\\opera.css',
   'DATA'),
  ('docutils\\writers\\s5_html\\themes\\medium-black\\__base__',
   'l:\\programs\\laragon_full\\www\\labs\\codemy.com\\kivy\\venv\\lib\\site-packages\\docutils\\writers\\s5_html\\themes\\medium-black\\__base__',
   'DATA'),
  ('docutils\\writers\\s5_html\\themes\\small-black\\__base__',
   'l:\\programs\\laragon_full\\www\\labs\\codemy.com\\kivy\\venv\\lib\\site-packages\\docutils\\writers\\s5_html\\themes\\small-black\\__base__',
   'DATA'),
  ('kivy_install\\data\\glsl\\default.vs',
   'l:\\programs\\laragon_full\\www\\labs\\codemy.com\\kivy\\venv\\lib\\site-packages\\kivy\\data\\glsl\\default.vs',
   'DATA'),
  ('kivy_install\\data\\glsl\\default.png',
   'l:\\programs\\laragon_full\\www\\labs\\codemy.com\\kivy\\venv\\lib\\site-packages\\kivy\\data\\glsl\\default.png',
   'DATA'),
  ('docutils\\writers\\latex2e\\default.tex',
   'l:\\programs\\laragon_full\\www\\labs\\codemy.com\\kivy\\venv\\lib\\site-packages\\docutils\\writers\\latex2e\\default.tex',
   'DATA'),
  ('kivy_install\\data\\logo\\kivy-icon-16.png',
   'l:\\programs\\laragon_full\\www\\labs\\codemy.com\\kivy\\venv\\lib\\site-packages\\kivy\\data\\logo\\kivy-icon-16.png',
   'DATA'),
  ('docutils\\writers\\s5_html\\themes\\default\\framing.css',
   'l:\\programs\\laragon_full\\www\\labs\\codemy.com\\kivy\\venv\\lib\\site-packages\\docutils\\writers\\s5_html\\themes\\default\\framing.css',
   'DATA'),
  ('docutils\\writers\\html4css1\\template.txt',
   'l:\\programs\\laragon_full\\www\\labs\\codemy.com\\kivy\\venv\\lib\\site-packages\\docutils\\writers\\html4css1\\template.txt',
   'DATA'),
  ('kivy_install\\modules\\__pycache__\\showborder.cpython-38.pyc',
   'l:\\programs\\laragon_full\\www\\labs\\codemy.com\\kivy\\venv\\lib\\site-packages\\kivy\\modules\\__pycache__\\showborder.cpython-38.pyc',
   'DATA'),
  ('kivy_install\\modules\\__pycache__\\_webdebugger.cpython-38.pyc',
   'l:\\programs\\laragon_full\\www\\labs\\codemy.com\\kivy\\venv\\lib\\site-packages\\kivy\\modules\\__pycache__\\_webdebugger.cpython-38.pyc',
   'DATA'),
  ('docutils\\writers\\s5_html\\themes\\medium-black\\pretty.css',
   'l:\\programs\\laragon_full\\www\\labs\\codemy.com\\kivy\\venv\\lib\\site-packages\\docutils\\writers\\s5_html\\themes\\medium-black\\pretty.css',
   'DATA'),
  ('kivy_install\\data\\glsl\\header.vs',
   'l:\\programs\\laragon_full\\www\\labs\\codemy.com\\kivy\\venv\\lib\\site-packages\\kivy\\data\\glsl\\header.vs',
   'DATA'),
  ('kivy_install\\data\\keyboards\\de.json',
   'l:\\programs\\laragon_full\\www\\labs\\codemy.com\\kivy\\venv\\lib\\site-packages\\kivy\\data\\keyboards\\de.json',
   'DATA'),
  ('docutils\\writers\\s5_html\\themes\\default\\slides.css',
   'l:\\programs\\laragon_full\\www\\labs\\codemy.com\\kivy\\venv\\lib\\site-packages\\docutils\\writers\\s5_html\\themes\\default\\slides.css',
   'DATA'),
  ('docutils\\parsers\\rst\\include\\isomscr-wide.txt',
   'l:\\programs\\laragon_full\\www\\labs\\codemy.com\\kivy\\venv\\lib\\site-packages\\docutils\\parsers\\rst\\include\\isomscr-wide.txt',
   'DATA'),
  ('docutils\\parsers\\rst\\include\\isocyr2.txt',
   'l:\\programs\\laragon_full\\www\\labs\\codemy.com\\kivy\\venv\\lib\\site-packages\\docutils\\parsers\\rst\\include\\isocyr2.txt',
   'DATA'),
  ('kivy_install\\modules\\cursor.py',
   'l:\\programs\\laragon_full\\www\\labs\\codemy.com\\kivy\\venv\\lib\\site-packages\\kivy\\modules\\cursor.py',
   'DATA'),
  ('kivy_install\\modules\\__pycache__\\joycursor.cpython-38.pyc',
   'l:\\programs\\laragon_full\\www\\labs\\codemy.com\\kivy\\venv\\lib\\site-packages\\kivy\\modules\\__pycache__\\joycursor.cpython-38.pyc',
   'DATA'),
  ('docutils\\writers\\s5_html\\themes\\big-white\\framing.css',
   'l:\\programs\\laragon_full\\www\\labs\\codemy.com\\kivy\\venv\\lib\\site-packages\\docutils\\writers\\s5_html\\themes\\big-white\\framing.css',
   'DATA'),
  ('docutils\\writers\\s5_html\\themes\\big-black\\framing.css',
   'l:\\programs\\laragon_full\\www\\labs\\codemy.com\\kivy\\venv\\lib\\site-packages\\docutils\\writers\\s5_html\\themes\\big-black\\framing.css',
   'DATA'),
  ('kivy_install\\data\\fonts\\Roboto-BoldItalic.ttf',
   'l:\\programs\\laragon_full\\www\\labs\\codemy.com\\kivy\\venv\\lib\\site-packages\\kivy\\data\\fonts\\Roboto-BoldItalic.ttf',
   'DATA'),
  ('kivy_install\\data\\glsl\\default.fs',
   'l:\\programs\\laragon_full\\www\\labs\\codemy.com\\kivy\\venv\\lib\\site-packages\\kivy\\data\\glsl\\default.fs',
   'DATA'),
  ('docutils\\writers\\odf_odt\\styles.odt',
   'l:\\programs\\laragon_full\\www\\labs\\codemy.com\\kivy\\venv\\lib\\site-packages\\docutils\\writers\\odf_odt\\styles.odt',
   'DATA'),
  ('docutils\\writers\\html5_polyglot\\template.txt',
   'l:\\programs\\laragon_full\\www\\labs\\codemy.com\\kivy\\venv\\lib\\site-packages\\docutils\\writers\\html5_polyglot\\template.txt',
   'DATA'),
  ('kivy_install\\modules\\__pycache__\\cursor.cpython-38.pyc',
   'l:\\programs\\laragon_full\\www\\labs\\codemy.com\\kivy\\venv\\lib\\site-packages\\kivy\\modules\\__pycache__\\cursor.cpython-38.pyc',
   'DATA'),
  ('docutils\\parsers\\rst\\include\\isoamsb.txt',
   'l:\\programs\\laragon_full\\www\\labs\\codemy.com\\kivy\\venv\\lib\\site-packages\\docutils\\parsers\\rst\\include\\isoamsb.txt',
   'DATA'),
  ('docutils\\writers\\latex2e\\xelatex.tex',
   'l:\\programs\\laragon_full\\www\\labs\\codemy.com\\kivy\\venv\\lib\\site-packages\\docutils\\writers\\latex2e\\xelatex.tex',
   'DATA'),
  ('kivy_install\\data\\images\\background.jpg',
   'l:\\programs\\laragon_full\\www\\labs\\codemy.com\\kivy\\venv\\lib\\site-packages\\kivy\\data\\images\\background.jpg',
   'DATA'),
  ('kivy_install\\modules\\__pycache__\\inspector.cpython-38.pyc',
   'l:\\programs\\laragon_full\\www\\labs\\codemy.com\\kivy\\venv\\lib\\site-packages\\kivy\\modules\\__pycache__\\inspector.cpython-38.pyc',
   'DATA'),
  ('kivy_install\\modules\\__pycache__\\__init__.cpython-38.pyc',
   'l:\\programs\\laragon_full\\www\\labs\\codemy.com\\kivy\\venv\\lib\\site-packages\\kivy\\modules\\__pycache__\\__init__.cpython-38.pyc',
   'DATA'),
  ('kivy_install\\data\\logo\\kivy-icon-64.png',
   'l:\\programs\\laragon_full\\www\\labs\\codemy.com\\kivy\\venv\\lib\\site-packages\\kivy\\data\\logo\\kivy-icon-64.png',
   'DATA'),
  ('docutils\\writers\\s5_html\\themes\\README.txt',
   'l:\\programs\\laragon_full\\www\\labs\\codemy.com\\kivy\\venv\\lib\\site-packages\\docutils\\writers\\s5_html\\themes\\README.txt',
   'DATA'),
  ('kivy_install\\data\\keyboards\\fr_CH.json',
   'l:\\programs\\laragon_full\\www\\labs\\codemy.com\\kivy\\venv\\lib\\site-packages\\kivy\\data\\keyboards\\fr_CH.json',
   'DATA'),
  ('kivy_install\\data\\settings_kivy.json',
   'l:\\programs\\laragon_full\\www\\labs\\codemy.com\\kivy\\venv\\lib\\site-packages\\kivy\\data\\settings_kivy.json',
   'DATA'),
  ('docutils\\parsers\\rst\\include\\isomfrk.txt',
   'l:\\programs\\laragon_full\\www\\labs\\codemy.com\\kivy\\venv\\lib\\site-packages\\docutils\\parsers\\rst\\include\\isomfrk.txt',
   'DATA'),
  ('docutils\\writers\\s5_html\\themes\\big-black\\pretty.css',
   'l:\\programs\\laragon_full\\www\\labs\\codemy.com\\kivy\\venv\\lib\\site-packages\\docutils\\writers\\s5_html\\themes\\big-black\\pretty.css',
   'DATA'),
  ('kivy_install\\modules\\__pycache__\\screen.cpython-38.pyc',
   'l:\\programs\\laragon_full\\www\\labs\\codemy.com\\kivy\\venv\\lib\\site-packages\\kivy\\modules\\__pycache__\\screen.cpython-38.pyc',
   'DATA'),
  ('docutils\\parsers\\rst\\include\\s5defs.txt',
   'l:\\programs\\laragon_full\\www\\labs\\codemy.com\\kivy\\venv\\lib\\site-packages\\docutils\\parsers\\rst\\include\\s5defs.txt',
   'DATA'),
  ('kivy_install\\data\\logo\\kivy-icon-256.png',
   'l:\\programs\\laragon_full\\www\\labs\\codemy.com\\kivy\\venv\\lib\\site-packages\\kivy\\data\\logo\\kivy-icon-256.png',
   'DATA'),
  ('kivy_install\\data\\keyboards\\de_CH.json',
   'l:\\programs\\laragon_full\\www\\labs\\codemy.com\\kivy\\venv\\lib\\site-packages\\kivy\\data\\keyboards\\de_CH.json',
   'DATA'),
  ('kivy_install\\data\\images\\defaulttheme-0.png',
   'l:\\programs\\laragon_full\\www\\labs\\codemy.com\\kivy\\venv\\lib\\site-packages\\kivy\\data\\images\\defaulttheme-0.png',
   'DATA'),
  ('docutils\\writers\\pep_html\\template.txt',
   'l:\\programs\\laragon_full\\www\\labs\\codemy.com\\kivy\\venv\\lib\\site-packages\\docutils\\writers\\pep_html\\template.txt',
   'DATA'),
  ('kivy_install\\data\\images\\defaultshape.png',
   'l:\\programs\\laragon_full\\www\\labs\\codemy.com\\kivy\\venv\\lib\\site-packages\\kivy\\data\\images\\defaultshape.png',
   'DATA'),
  ('kivy_install\\data\\keyboards\\qwerty.json',
   'l:\\programs\\laragon_full\\www\\labs\\codemy.com\\kivy\\venv\\lib\\site-packages\\kivy\\data\\keyboards\\qwerty.json',
   'DATA'),
  ('kivy_install\\data\\logo\\kivy-icon-64.ico',
   'l:\\programs\\laragon_full\\www\\labs\\codemy.com\\kivy\\venv\\lib\\site-packages\\kivy\\data\\logo\\kivy-icon-64.ico',
   'DATA'),
  ('docutils\\parsers\\rst\\include\\isoamso.txt',
   'l:\\programs\\laragon_full\\www\\labs\\codemy.com\\kivy\\venv\\lib\\site-packages\\docutils\\parsers\\rst\\include\\isoamso.txt',
   'DATA'),
  ('kivy_install\\modules\\touchring.py',
   'l:\\programs\\laragon_full\\www\\labs\\codemy.com\\kivy\\venv\\lib\\site-packages\\kivy\\modules\\touchring.py',
   'DATA'),
  ('docutils\\parsers\\rst\\include\\xhtml1-special.txt',
   'l:\\programs\\laragon_full\\www\\labs\\codemy.com\\kivy\\venv\\lib\\site-packages\\docutils\\parsers\\rst\\include\\xhtml1-special.txt',
   'DATA'),
  ('kivy_install\\modules\\__pycache__\\monitor.cpython-38.pyc',
   'l:\\programs\\laragon_full\\www\\labs\\codemy.com\\kivy\\venv\\lib\\site-packages\\kivy\\modules\\__pycache__\\monitor.cpython-38.pyc',
   'DATA'),
  ('docutils\\writers\\s5_html\\themes\\big-black\\__base__',
   'l:\\programs\\laragon_full\\www\\labs\\codemy.com\\kivy\\venv\\lib\\site-packages\\docutils\\writers\\s5_html\\themes\\big-black\\__base__',
   'DATA'),
  ('kivy_install\\modules\\console.py',
   'l:\\programs\\laragon_full\\www\\labs\\codemy.com\\kivy\\venv\\lib\\site-packages\\kivy\\modules\\console.py',
   'DATA'),
  ('kivy_install\\modules\\__pycache__\\recorder.cpython-38.pyc',
   'l:\\programs\\laragon_full\\www\\labs\\codemy.com\\kivy\\venv\\lib\\site-packages\\kivy\\modules\\__pycache__\\recorder.cpython-38.pyc',
   'DATA'),
  ('kivy_install\\modules\\showborder.py',
   'l:\\programs\\laragon_full\\www\\labs\\codemy.com\\kivy\\venv\\lib\\site-packages\\kivy\\modules\\showborder.py',
   'DATA'),
  ('docutils\\parsers\\rst\\include\\isoamsc.txt',
   'l:\\programs\\laragon_full\\www\\labs\\codemy.com\\kivy\\venv\\lib\\site-packages\\docutils\\parsers\\rst\\include\\isoamsc.txt',
   'DATA'),
  ('kivy_install\\data\\fonts\\Roboto-Bold.ttf',
   'l:\\programs\\laragon_full\\www\\labs\\codemy.com\\kivy\\venv\\lib\\site-packages\\kivy\\data\\fonts\\Roboto-Bold.ttf',
   'DATA'),
  ('docutils\\parsers\\rst\\include\\isoamsa.txt',
   'l:\\programs\\laragon_full\\www\\labs\\codemy.com\\kivy\\venv\\lib\\site-packages\\docutils\\parsers\\rst\\include\\isoamsa.txt',
   'DATA'),
  ('docutils\\writers\\s5_html\\themes\\default\\s5-core.css',
   'l:\\programs\\laragon_full\\www\\labs\\codemy.com\\kivy\\venv\\lib\\site-packages\\docutils\\writers\\s5_html\\themes\\default\\s5-core.css',
   'DATA'),
  ('docutils\\writers\\s5_html\\themes\\default\\outline.css',
   'l:\\programs\\laragon_full\\www\\labs\\codemy.com\\kivy\\venv\\lib\\site-packages\\docutils\\writers\\s5_html\\themes\\default\\outline.css',
   'DATA'),
  ('docutils\\parsers\\rst\\include\\isomscr.txt',
   'l:\\programs\\laragon_full\\www\\labs\\codemy.com\\kivy\\venv\\lib\\site-packages\\docutils\\parsers\\rst\\include\\isomscr.txt',
   'DATA'),
  ('Include\\pyconfig.h',
   'L:\\Programs\\laragon_full\\bin\\python\\python-3.8-64\\Include\\pyconfig.h',
   'DATA'),
  ('docutils\\parsers\\rst\\include\\isotech.txt',
   'l:\\programs\\laragon_full\\www\\labs\\codemy.com\\kivy\\venv\\lib\\site-packages\\docutils\\parsers\\rst\\include\\isotech.txt',
   'DATA'),
  ('docutils\\writers\\s5_html\\themes\\default\\slides.js',
   'l:\\programs\\laragon_full\\www\\labs\\codemy.com\\kivy\\venv\\lib\\site-packages\\docutils\\writers\\s5_html\\themes\\default\\slides.js',
   'DATA'),
  ('certifi\\cacert.pem',
   'l:\\programs\\laragon_full\\www\\labs\\codemy.com\\kivy\\venv\\lib\\site-packages\\certifi\\cacert.pem',
   'DATA'),
  ('docutils\\parsers\\rst\\include\\isobox.txt',
   'l:\\programs\\laragon_full\\www\\labs\\codemy.com\\kivy\\venv\\lib\\site-packages\\docutils\\parsers\\rst\\include\\isobox.txt',
   'DATA'),
  ('docutils\\writers\\s5_html\\themes\\default\\pretty.css',
   'l:\\programs\\laragon_full\\www\\labs\\codemy.com\\kivy\\venv\\lib\\site-packages\\docutils\\writers\\s5_html\\themes\\default\\pretty.css',
   'DATA'),
  ('docutils\\writers\\s5_html\\themes\\small-white\\pretty.css',
   'l:\\programs\\laragon_full\\www\\labs\\codemy.com\\kivy\\venv\\lib\\site-packages\\docutils\\writers\\s5_html\\themes\\small-white\\pretty.css',
   'DATA'),
  ('kivy_install\\data\\images\\image-loading.zip',
   'l:\\programs\\laragon_full\\www\\labs\\codemy.com\\kivy\\venv\\lib\\site-packages\\kivy\\data\\images\\image-loading.zip',
   'DATA'),
  ('docutils\\parsers\\rst\\include\\isolat2.txt',
   'l:\\programs\\laragon_full\\www\\labs\\codemy.com\\kivy\\venv\\lib\\site-packages\\docutils\\parsers\\rst\\include\\isolat2.txt',
   'DATA'),
  ('docutils\\parsers\\rst\\include\\isogrk2.txt',
   'l:\\programs\\laragon_full\\www\\labs\\codemy.com\\kivy\\venv\\lib\\site-packages\\docutils\\parsers\\rst\\include\\isogrk2.txt',
   'DATA'),
  ('kivy_install\\data\\logo\\kivy-icon-512.png',
   'l:\\programs\\laragon_full\\www\\labs\\codemy.com\\kivy\\venv\\lib\\site-packages\\kivy\\data\\logo\\kivy-icon-512.png',
   'DATA'),
  ('kivy_install\\data\\logo\\kivy-icon-128.png',
   'l:\\programs\\laragon_full\\www\\labs\\codemy.com\\kivy\\venv\\lib\\site-packages\\kivy\\data\\logo\\kivy-icon-128.png',
   'DATA'),
  ('docutils\\writers\\html4css1\\html4css1.css',
   'l:\\programs\\laragon_full\\www\\labs\\codemy.com\\kivy\\venv\\lib\\site-packages\\docutils\\writers\\html4css1\\html4css1.css',
   'DATA'),
  ('docutils\\writers\\s5_html\\themes\\default\\blank.gif',
   'l:\\programs\\laragon_full\\www\\labs\\codemy.com\\kivy\\venv\\lib\\site-packages\\docutils\\writers\\s5_html\\themes\\default\\blank.gif',
   'DATA'),
  ('kivy_install\\modules\\__pycache__\\webdebugger.cpython-38.pyc',
   'l:\\programs\\laragon_full\\www\\labs\\codemy.com\\kivy\\venv\\lib\\site-packages\\kivy\\modules\\__pycache__\\webdebugger.cpython-38.pyc',
   'DATA'),
  ('kivy_install\\modules\\_webdebugger.py',
   'l:\\programs\\laragon_full\\www\\labs\\codemy.com\\kivy\\venv\\lib\\site-packages\\kivy\\modules\\_webdebugger.py',
   'DATA'),
  ('kivy_install\\modules\\inspector.py',
   'l:\\programs\\laragon_full\\www\\labs\\codemy.com\\kivy\\venv\\lib\\site-packages\\kivy\\modules\\inspector.py',
   'DATA'),
  ('docutils\\parsers\\rst\\include\\isogrk1.txt',
   'l:\\programs\\laragon_full\\www\\labs\\codemy.com\\kivy\\venv\\lib\\site-packages\\docutils\\parsers\\rst\\include\\isogrk1.txt',
   'DATA'),
  ('docutils\\parsers\\rst\\include\\isogrk4-wide.txt',
   'l:\\programs\\laragon_full\\www\\labs\\codemy.com\\kivy\\venv\\lib\\site-packages\\docutils\\parsers\\rst\\include\\isogrk4-wide.txt',
   'DATA'),
  ('docutils\\parsers\\rst\\include\\isomfrk-wide.txt',
   'l:\\programs\\laragon_full\\www\\labs\\codemy.com\\kivy\\venv\\lib\\site-packages\\docutils\\parsers\\rst\\include\\isomfrk-wide.txt',
   'DATA'),
  ('docutils\\writers\\s5_html\\themes\\medium-white\\pretty.css',
   'l:\\programs\\laragon_full\\www\\labs\\codemy.com\\kivy\\venv\\lib\\site-packages\\docutils\\writers\\s5_html\\themes\\medium-white\\pretty.css',
   'DATA'),
  ('kivy_install\\data\\images\\defaulttheme.atlas',
   'l:\\programs\\laragon_full\\www\\labs\\codemy.com\\kivy\\venv\\lib\\site-packages\\kivy\\data\\images\\defaulttheme.atlas',
   'DATA'),
  ('kivy_install\\data\\images\\testpattern.png',
   'l:\\programs\\laragon_full\\www\\labs\\codemy.com\\kivy\\venv\\lib\\site-packages\\kivy\\data\\images\\testpattern.png',
   'DATA'),
  ('docutils\\writers\\s5_html\\themes\\default\\iepngfix.htc',
   'l:\\programs\\laragon_full\\www\\labs\\codemy.com\\kivy\\venv\\lib\\site-packages\\docutils\\writers\\s5_html\\themes\\default\\iepngfix.htc',
   'DATA'),
  ('kivy_install\\data\\keyboards\\qwertz.json',
   'l:\\programs\\laragon_full\\www\\labs\\codemy.com\\kivy\\venv\\lib\\site-packages\\kivy\\data\\keyboards\\qwertz.json',
   'DATA'),
  ('kivy_install\\modules\\webdebugger.py',
   'l:\\programs\\laragon_full\\www\\labs\\codemy.com\\kivy\\venv\\lib\\site-packages\\kivy\\modules\\webdebugger.py',
   'DATA'),
  ('kivy_install\\modules\\monitor.py',
   'l:\\programs\\laragon_full\\www\\labs\\codemy.com\\kivy\\venv\\lib\\site-packages\\kivy\\modules\\monitor.py',
   'DATA'),
  ('kivy_install\\data\\fonts\\DejaVuSans.ttf',
   'l:\\programs\\laragon_full\\www\\labs\\codemy.com\\kivy\\venv\\lib\\site-packages\\kivy\\data\\fonts\\DejaVuSans.ttf',
   'DATA'),
  ('docutils\\writers\\s5_html\\themes\\small-black\\pretty.css',
   'l:\\programs\\laragon_full\\www\\labs\\codemy.com\\kivy\\venv\\lib\\site-packages\\docutils\\writers\\s5_html\\themes\\small-black\\pretty.css',
   'DATA'),
  ('docutils\\parsers\\rst\\include\\xhtml1-lat1.txt',
   'l:\\programs\\laragon_full\\www\\labs\\codemy.com\\kivy\\venv\\lib\\site-packages\\docutils\\parsers\\rst\\include\\xhtml1-lat1.txt',
   'DATA'),
  ('docutils\\parsers\\rst\\include\\isolat1.txt',
   'l:\\programs\\laragon_full\\www\\labs\\codemy.com\\kivy\\venv\\lib\\site-packages\\docutils\\parsers\\rst\\include\\isolat1.txt',
   'DATA'),
  ('kivy_install\\data\\logo\\kivy-icon-48.png',
   'l:\\programs\\laragon_full\\www\\labs\\codemy.com\\kivy\\venv\\lib\\site-packages\\kivy\\data\\logo\\kivy-icon-48.png',
   'DATA'),
  ('docutils\\parsers\\rst\\include\\isomopf-wide.txt',
   'l:\\programs\\laragon_full\\www\\labs\\codemy.com\\kivy\\venv\\lib\\site-packages\\docutils\\parsers\\rst\\include\\isomopf-wide.txt',
   'DATA'),
  ('kivy_install\\data\\images\\cursor.png',
   'l:\\programs\\laragon_full\\www\\labs\\codemy.com\\kivy\\venv\\lib\\site-packages\\kivy\\data\\images\\cursor.png',
   'DATA'),
  ('kivy_install\\data\\images\\image-loading.gif',
   'l:\\programs\\laragon_full\\www\\labs\\codemy.com\\kivy\\venv\\lib\\site-packages\\kivy\\data\\images\\image-loading.gif',
   'DATA'),
  ('docutils\\parsers\\rst\\include\\isomopf.txt',
   'l:\\programs\\laragon_full\\www\\labs\\codemy.com\\kivy\\venv\\lib\\site-packages\\docutils\\parsers\\rst\\include\\isomopf.txt',
   'DATA'),
  ('docutils\\writers\\s5_html\\themes\\default\\print.css',
   'l:\\programs\\laragon_full\\www\\labs\\codemy.com\\kivy\\venv\\lib\\site-packages\\docutils\\writers\\s5_html\\themes\\default\\print.css',
   'DATA'),
  ('kivy_install\\modules\\screen.py',
   'l:\\programs\\laragon_full\\www\\labs\\codemy.com\\kivy\\venv\\lib\\site-packages\\kivy\\modules\\screen.py',
   'DATA'),
  ('kivy_install\\modules\\__pycache__\\keybinding.cpython-38.pyc',
   'l:\\programs\\laragon_full\\www\\labs\\codemy.com\\kivy\\venv\\lib\\site-packages\\kivy\\modules\\__pycache__\\keybinding.cpython-38.pyc',
   'DATA')],)
