('L:\\Programs\\laragon_full\\www\\Labs\\Codemy.com\\Kivy\\chap020\\build\\calculator\\calculator.exe',
 False,
 False,
 True,
 None,
 None,
 False,
 False,
 '<?xml version="1.0" encoding="UTF-8" standalone="yes"?><assembly xmlns="urn:schemas-microsoft-com:asm.v1" manifestVersion="1.0"><assemblyIdentity type="win32" name="calculator" processorArchitecture="amd64" version="1.0.0.0"/><trustInfo xmlns="urn:schemas-microsoft-com:asm.v3"><security><requestedPrivileges><requestedExecutionLevel level="asInvoker" uiAccess="false"/></requestedPrivileges></security></trustInfo><dependency><dependentAssembly><assemblyIdentity type="win32" name="Microsoft.Windows.Common-Controls" language="*" processorArchitecture="*" version="6.0.0.0" publicKeyToken="6595b64144ccf1df"/><compatibility xmlns="urn:schemas-microsoft-com:compatibility.v1"/></dependentAssembly></dependency><compatibility xmlns="urn:schemas-microsoft-com:compatibility.v1"><application><supportedOS Id="{e2011457-1546-43c5-a5fe-008deee3d3f0}"/><supportedOS Id="{35138b9a-5d96-4fbd-8e2d-a2440225f93a}"/><supportedOS Id="{4a2f28e3-53b9-4441-ba9c-d69d4a4a6e38}"/><supportedOS Id="{1f676c76-80e1-4239-95bb-83d0f6d0da78}"/><supportedOS Id="{8e0f7a12-bfb3-4fe8-b9a5-48fd50a15a9a}"/></application></compatibility></assembly>',
 True,
 'calculator.pkg',
 [('PYZ-00.pyz',
   'L:\\Programs\\laragon_full\\www\\Labs\\Codemy.com\\Kivy\\chap020\\build\\calculator\\PYZ-00.pyz',
   'PYZ'),
  ('struct',
   'L:\\Programs\\laragon_full\\bin\\python\\python-3.8-64\\lib\\struct.pyo',
   'PYMODULE'),
  ('pyimod01_os_path',
   'l:\\programs\\laragon_full\\www\\labs\\codemy.com\\kivy\\venv\\lib\\site-packages\\PyInstaller\\loader\\pyimod01_os_path.pyc',
   'PYMODULE'),
  ('pyimod02_archive',
   'l:\\programs\\laragon_full\\www\\labs\\codemy.com\\kivy\\venv\\lib\\site-packages\\PyInstaller\\loader\\pyimod02_archive.pyc',
   'PYMODULE'),
  ('pyimod03_importers',
   'l:\\programs\\laragon_full\\www\\labs\\codemy.com\\kivy\\venv\\lib\\site-packages\\PyInstaller\\loader\\pyimod03_importers.pyc',
   'PYMODULE'),
  ('pyiboot01_bootstrap',
   'l:\\programs\\laragon_full\\www\\labs\\codemy.com\\kivy\\venv\\lib\\site-packages\\PyInstaller\\loader\\pyiboot01_bootstrap.py',
   'PYSOURCE'),
  ('pyi_rth_multiprocessing',
   'L:\\Programs\\laragon_full\\www\\Labs\\Codemy.com\\Kivy\\venv\\Lib\\site-packages\\PyInstaller\\hooks\\rthooks\\pyi_rth_multiprocessing.py',
   'PYSOURCE'),
  ('pyi_rth_certifi',
   'L:\\Programs\\laragon_full\\www\\Labs\\Codemy.com\\Kivy\\venv\\Lib\\site-packages\\_pyinstaller_hooks_contrib\\hooks\\rthooks\\pyi_rth_certifi.py',
   'PYSOURCE'),
  ('pyi_rth_kivy',
   'L:\\Programs\\laragon_full\\www\\Labs\\Codemy.com\\Kivy\\venv\\Lib\\site-packages\\PyInstaller\\hooks\\rthooks\\pyi_rth_kivy.py',
   'PYSOURCE'),
  ('pyi_rth_pkgres',
   'L:\\Programs\\laragon_full\\www\\Labs\\Codemy.com\\Kivy\\venv\\Lib\\site-packages\\PyInstaller\\hooks\\rthooks\\pyi_rth_pkgres.py',
   'PYSOURCE'),
  ('pyi_rth_win32api',
   'L:\\Programs\\laragon_full\\www\\Labs\\Codemy.com\\Kivy\\venv\\Lib\\site-packages\\PyInstaller\\hooks\\rthooks\\pyi_rth_win32api.py',
   'PYSOURCE'),
  ('pyi_rth_win32comgenpy',
   'L:\\Programs\\laragon_full\\www\\Labs\\Codemy.com\\Kivy\\venv\\Lib\\site-packages\\PyInstaller\\hooks\\rthooks\\pyi_rth_win32comgenpy.py',
   'PYSOURCE'),
  ('pyi_rth_gstreamer',
   'L:\\Programs\\laragon_full\\www\\Labs\\Codemy.com\\Kivy\\venv\\Lib\\site-packages\\PyInstaller\\hooks\\rthooks\\pyi_rth_gstreamer.py',
   'PYSOURCE'),
  ('calculator',
   'L:\\Programs\\laragon_full\\www\\Labs\\Codemy.com\\Kivy\\chap020\\calculator.py',
   'PYSOURCE'),
  ('calculator.exe.manifest',
   'L:\\Programs\\laragon_full\\www\\Labs\\Codemy.com\\Kivy\\chap020\\build\\calculator\\calculator.exe.manifest',
   'BINARY')],
 [],
 False,
 False,
 1610460707,
 [('runw.exe',
   'l:\\programs\\laragon_full\\www\\labs\\codemy.com\\kivy\\venv\\lib\\site-packages\\PyInstaller\\bootloader\\Windows-64bit\\runw.exe',
   'EXECUTABLE')])
