('L:\\Programs\\laragon_full\\www\\Labs\\Codemy.com\\Kivy\\chap020\\build\\calculator\\PKG-00.pkg',
 {'BINARY': 1,
  'DATA': 1,
  'EXECUTABLE': 1,
  'EXTENSION': 1,
  'PYMODULE': 1,
  'PYSOURCE': 1,
  'PYZ': 0},
 [('PYZ-00.pyz',
   'L:\\Programs\\laragon_full\\www\\Labs\\Codemy.com\\Kivy\\chap020\\build\\calculator\\PYZ-00.pyz',
   'PYZ'),
  ('struct',
   'L:\\Programs\\laragon_full\\bin\\python\\python-3.8-64\\lib\\struct.pyo',
   'PYMODULE'),
  ('pyimod01_os_path',
   'l:\\programs\\laragon_full\\www\\labs\\codemy.com\\kivy\\venv\\lib\\site-packages\\PyInstaller\\loader\\pyimod01_os_path.pyc',
   'PYMODULE'),
  ('pyimod02_archive',
   'l:\\programs\\laragon_full\\www\\labs\\codemy.com\\kivy\\venv\\lib\\site-packages\\PyInstaller\\loader\\pyimod02_archive.pyc',
   'PYMODULE'),
  ('pyimod03_importers',
   'l:\\programs\\laragon_full\\www\\labs\\codemy.com\\kivy\\venv\\lib\\site-packages\\PyInstaller\\loader\\pyimod03_importers.pyc',
   'PYMODULE'),
  ('pyiboot01_bootstrap',
   'l:\\programs\\laragon_full\\www\\labs\\codemy.com\\kivy\\venv\\lib\\site-packages\\PyInstaller\\loader\\pyiboot01_bootstrap.py',
   'PYSOURCE'),
  ('pyi_rth_multiprocessing',
   'L:\\Programs\\laragon_full\\www\\Labs\\Codemy.com\\Kivy\\venv\\Lib\\site-packages\\PyInstaller\\hooks\\rthooks\\pyi_rth_multiprocessing.py',
   'PYSOURCE'),
  ('pyi_rth_certifi',
   'L:\\Programs\\laragon_full\\www\\Labs\\Codemy.com\\Kivy\\venv\\Lib\\site-packages\\_pyinstaller_hooks_contrib\\hooks\\rthooks\\pyi_rth_certifi.py',
   'PYSOURCE'),
  ('pyi_rth_kivy',
   'L:\\Programs\\laragon_full\\www\\Labs\\Codemy.com\\Kivy\\venv\\Lib\\site-packages\\PyInstaller\\hooks\\rthooks\\pyi_rth_kivy.py',
   'PYSOURCE'),
  ('pyi_rth_pkgres',
   'L:\\Programs\\laragon_full\\www\\Labs\\Codemy.com\\Kivy\\venv\\Lib\\site-packages\\PyInstaller\\hooks\\rthooks\\pyi_rth_pkgres.py',
   'PYSOURCE'),
  ('pyi_rth_win32api',
   'L:\\Programs\\laragon_full\\www\\Labs\\Codemy.com\\Kivy\\venv\\Lib\\site-packages\\PyInstaller\\hooks\\rthooks\\pyi_rth_win32api.py',
   'PYSOURCE'),
  ('pyi_rth_win32comgenpy',
   'L:\\Programs\\laragon_full\\www\\Labs\\Codemy.com\\Kivy\\venv\\Lib\\site-packages\\PyInstaller\\hooks\\rthooks\\pyi_rth_win32comgenpy.py',
   'PYSOURCE'),
  ('pyi_rth_gstreamer',
   'L:\\Programs\\laragon_full\\www\\Labs\\Codemy.com\\Kivy\\venv\\Lib\\site-packages\\PyInstaller\\hooks\\rthooks\\pyi_rth_gstreamer.py',
   'PYSOURCE'),
  ('calculator',
   'L:\\Programs\\laragon_full\\www\\Labs\\Codemy.com\\Kivy\\chap020\\calculator.py',
   'PYSOURCE'),
  ('calculator.exe.manifest',
   'L:\\Programs\\laragon_full\\www\\Labs\\Codemy.com\\Kivy\\chap020\\build\\calculator\\calculator.exe.manifest',
   'BINARY')],
 True,
 False,
 False,
 [])
